{
  "posts": [
    {
      "id": 2,
      "title": "Post Two",
      "body": "Some content for Post Two",
      "author": "HT"
    },
    {
      "title": "Post Four",
      "body": "Some content for Post Four",
      "author": "MA",
      "id": 4
    }
  ],
  "comments": [],
  "profile": [
    {
      "id": 1,
      "name": "Study Link"
    }
  ]
}